\relax 
\providecommand\hyper@newdestlabel[2]{}
\@writefile{toc}{\contentsline {section}{\numberline {7}Ausblick}{58}{section.7}}
\newlabel{Kap7}{{7}{58}{Ausblick}{section.7}{}}
\@setckpt{Ausblick}{
\setcounter{page}{59}
\setcounter{equation}{0}
\setcounter{enumi}{0}
\setcounter{enumii}{0}
\setcounter{enumiii}{0}
\setcounter{enumiv}{0}
\setcounter{footnote}{25}
\setcounter{mpfootnote}{0}
\setcounter{part}{0}
\setcounter{section}{7}
\setcounter{subsection}{0}
\setcounter{subsubsection}{3}
\setcounter{paragraph}{0}
\setcounter{subparagraph}{0}
\setcounter{figure}{17}
\setcounter{table}{1}
\setcounter{ContinuedFloat}{0}
\setcounter{FancyVerbLine}{0}
\setcounter{Item}{0}
\setcounter{Hfootnote}{25}
\setcounter{bookmark@seq@number}{45}
\setcounter{section@level}{1}
}
