\relax 
\providecommand\hyper@newdestlabel[2]{}
\catcode `"\active 
\providecommand\HyperFirstAtBeginDocument{\AtBeginDocument}
\HyperFirstAtBeginDocument{\ifx\hyper@anchor\@undefined
\global\let\oldcontentsline\contentsline
\gdef\contentsline#1#2#3#4{\oldcontentsline{#1}{#2}{#3}}
\global\let\oldnewlabel\newlabel
\gdef\newlabel#1#2{\newlabelxx{#1}#2}
\gdef\newlabelxx#1#2#3#4#5#6{\oldnewlabel{#1}{{#2}{#3}}}
\AtEndDocument{\ifx\hyper@anchor\@undefined
\let\contentsline\oldcontentsline
\let\newlabel\oldnewlabel
\fi}
\fi}
\global\let\hyper@last\relax 
\gdef\HyperFirstAtBeginDocument#1{#1}
\providecommand\HyField@AuxAddToFields[1]{}
\providecommand\HyField@AuxAddToCoFields[2]{}
\select@language{ngerman}
\@writefile{toc}{\select@language{ngerman}}
\@writefile{lof}{\select@language{ngerman}}
\@writefile{lot}{\select@language{ngerman}}
\citation{Fallbuch}
\@writefile{toc}{\contentsline {section}{Abbildungsverzeichnis}{4}{section*.3}}
\@writefile{toc}{\contentsline {section}{Tabellenverzeichnis}{5}{section*.4}}
\citation{NWZ}
\citation{Gaener}
\citation{MEDEXKRI}
\citation{MedEx}
\@writefile{toc}{\contentsline {section}{\numberline {1}Einleitung}{6}{section.1}}
\newlabel{Kap1}{{1}{6}{Einleitung}{section.1}{}}
\@writefile{toc}{\contentsline {subsection}{\numberline {1.1}Motivation}{6}{subsection.1.1}}
\@writefile{toc}{\contentsline {subsubsection}{\numberline {1.1.1}Entwicklung von Expertensystemen in der Medizin}{6}{subsubsection.1.1.1}}
\citation{MedEx}
\citation{DHD}
\citation{MD_Cardio}
\citation{MedEx}
\citation{MedEx}
\citation{MedEx}
\citation{MedEx}
\citation{Gaener}
\citation{MEDEXKRI}
\citation{MEDEXKRI}
\citation{MEDEXKRI}
\citation{MEDEXKRI}
\citation{MedEx}
\citation{MedEx}
\@writefile{toc}{\contentsline {subsubsection}{\numberline {1.1.2}Nutzung von Expertensystemen in der Medizin}{8}{subsubsection.1.1.2}}
\@writefile{toc}{\contentsline {subsection}{\numberline {1.2}Problemstellung}{8}{subsection.1.2}}
\citation{MedEx}
\@writefile{toc}{\contentsline {subsection}{\numberline {1.3}Zielsetzung}{9}{subsection.1.3}}
\newlabel{Ziel}{{1.3}{9}{Zielsetzung}{subsection.1.3}{}}
\@writefile{toc}{\contentsline {subsection}{\numberline {1.4}Aufbau dieser Arbeit}{9}{subsection.1.4}}
\citation{KM_Frey}
\citation{Reinmann}
\citation{Kunze}
\citation{Krcmar}
\citation{Krcmar}
\@writefile{toc}{\contentsline {section}{\numberline {2}Grundlagen}{10}{section.2}}
\newlabel{Kap2}{{2}{10}{Grundlagen}{section.2}{}}
\@writefile{toc}{\contentsline {subsection}{\numberline {2.1}Wissen}{10}{subsection.2.1}}
\newlabel{sec:Wissen}{{2.1}{10}{Wissen}{subsection.2.1}{}}
\citation{Kunze}
\citation{Reinmann}
\citation{Krcmar}
\citation{Reinmann}
\@writefile{toc}{\contentsline {subsubsection}{\numberline {2.1.1}Wissen -- Begriffsbestimmung}{11}{subsubsection.2.1.1}}
\@writefile{lof}{\contentsline {figure}{\numberline {1}{\ignorespaces Wissenspyramide}}{11}{figure.caption.5}}
\providecommand*\caption@xref[2]{\@setref\relax\@undefined{#1}}
\newlabel{Wissenspyramide}{{1}{11}{Wissenspyramide}{figure.caption.5}{}}
\citation{KGoetz}
\citation{Reinmann}
\citation{Reinmann}
\citation{KGoetz}
\@writefile{toc}{\contentsline {subsubsection}{\numberline {2.1.2}Explizites und implizites Wissen}{12}{subsubsection.2.1.2}}
\@writefile{toc}{\contentsline {subsection}{\numberline {2.2}Expertensysteme}{12}{subsection.2.2}}
\newlabel{sec:Expertensysteme}{{2.2}{12}{Expertensysteme}{subsection.2.2}{}}
\citation{Survey_Neurology}
\citation{MethodenWBS}
\citation{DefEx}
\citation{SystemeFuerExperten}
\@writefile{toc}{\contentsline {subsubsection}{\numberline {2.2.1}Definition}{13}{subsubsection.2.2.1}}
\newlabel{ExDef}{{2.2.1}{13}{Definition}{subsubsection.2.2.1}{}}
\citation{MethodenWBS}
\citation{MethodenWBS}
\citation{MethodenWBS}
\@writefile{toc}{\contentsline {subsubsection}{\numberline {2.2.2}Expertenwissen und Experten}{14}{subsubsection.2.2.2}}
\newlabel{ExW}{{2.2.2}{14}{Expertenwissen und Experten}{subsubsection.2.2.2}{}}
\citation{MethodenWBS}
\citation{MethodenWBS}
\citation{MethodenWBS}
\citation{MethodenWBS}
\citation{MethodenWBS}
\citation{MethodenWBS}
\citation{EXMED}
\citation{MethodenWBS}
\citation{EXMED}
\citation{EXMED}
\citation{Laudon}
\citation{EXMED}
\citation{MethodenWBS}
\@writefile{toc}{\contentsline {subsubsection}{\numberline {2.2.3}Architektur von Expertensystemen}{15}{subsubsection.2.2.3}}
\newlabel{ExArch}{{2.2.3}{15}{Architektur von Expertensystemen}{subsubsection.2.2.3}{}}
\citation{Gaener}
\@writefile{lof}{\contentsline {figure}{\numberline {2}{\ignorespaces Architektur eines Expertensystems}}{16}{figure.caption.6}}
\newlabel{Arichtektur_Expertensystem}{{2}{16}{Architektur eines Expertensystems}{figure.caption.6}{}}
\citation{MethodenWBS}
\citation{EXMED}
\citation{MethodenWBS}
\citation{MethodenWBS}
\citation{EnzWINF}
\citation{MethodenWBS}
\@writefile{toc}{\contentsline {subsubsection}{\numberline {2.2.4}Wissensrepr\IeC {\"a}sentation}{17}{subsubsection.2.2.4}}
\newlabel{ExWR}{{2.2.4}{17}{Wissensrepräsentation}{subsubsection.2.2.4}{}}
\citation{EXMED}
\citation{EXMED}
\citation{Gaener}
\citation{CBR}
\citation{CBR}
\citation{CBR}
\citation{MedEx}
\@writefile{toc}{\contentsline {paragraph}{\nonumberline Regelbasierte Systeme}{18}{section*.7}}
\@writefile{lof}{\contentsline {figure}{\numberline {3}{\ignorespaces Beispiel einer Regel}}{18}{figure.caption.8}}
\newlabel{Regel}{{3}{18}{Beispiel einer Regel}{figure.caption.8}{}}
\@writefile{toc}{\contentsline {paragraph}{\nonumberline Fallbasiertes Schlie\IeC {\ss }en}{18}{figure.caption.10}}
\citation{MedEx}
\citation{Laudon}
\citation{MedEx}
\citation{MedEx}
\citation{KE}
\@writefile{lof}{\contentsline {figure}{\numberline {4}{\ignorespaces Vorgehen beim fallbasiertes Schlie\IeC {\ss }en}}{19}{figure.caption.10}}
\newlabel{Fallbasiertes_Schliessen}{{4}{19}{Vorgehen beim fallbasiertes Schließen}{figure.caption.10}{}}
\@writefile{toc}{\contentsline {paragraph}{\nonumberline K\IeC {\"u}nstliche neuronale Netze}{19}{section*.11}}
\@writefile{toc}{\contentsline {subsection}{\numberline {2.3}Knowledge Engineering}{19}{subsection.2.3}}
\newlabel{sec:Knowledge Engineering}{{2.3}{19}{Knowledge Engineering}{subsection.2.3}{}}
\citation{MedEx}
\citation{MedEx}
\citation{MedEx}
\citation{MedEx}
\citation{MedEx}
\citation{MedEx}
\citation{MedEx}
\@writefile{toc}{\contentsline {subsubsection}{\numberline {2.3.1}Allgemeine Beschreibung}{20}{subsubsection.2.3.1}}
\newlabel{All_KE}{{2.3.1}{20}{Allgemeine Beschreibung}{subsubsection.2.3.1}{}}
\@writefile{lof}{\contentsline {figure}{\numberline {5}{\ignorespaces Teilgebiete Knowledge Engineering}}{20}{figure.caption.12}}
\newlabel{Schaubild_KE_Teilgebiete}{{5}{20}{Teilgebiete Knowledge Engineering}{figure.caption.12}{}}
\citation{MedEx}
\citation{KE}
\citation{MedEx}
\citation{KE}
\citation{MedEx}
\citation{KE}
\citation{MedEx}
\citation{KE}
\citation{KE}
\citation{MedEx}
\@writefile{toc}{\contentsline {subsubsection}{\numberline {2.3.2}Wissensakquisition als Modellbildung}{21}{subsubsection.2.3.2}}
\newlabel{KE_Metaphern}{{2.3.2}{21}{Wissensakquisition als Modellbildung}{subsubsection.2.3.2}{}}
\citation{KE}
\citation{MedEx}
\citation{MedEx}
\@writefile{toc}{\contentsline {subsubsection}{\numberline {2.3.3}Wissenserhebung}{22}{subsubsection.2.3.3}}
\citation{MedEx}
\citation{MedEx}
\citation{MedEx}
\citation{ENZWIONTO}
\@writefile{toc}{\contentsline {subsection}{\numberline {2.4}Zusammenfassung}{23}{subsection.2.4}}
\newlabel{sec:ZSM_Grundlagen}{{2.4}{23}{Zusammenfassung}{subsection.2.4}{}}
\citation{Survey_Neurology}
\citation{Survey_Neurology}
\citation{Survey_Neurology}
\citation{Survey_Neurology}
\citation{Survey_Neurology}
\@writefile{toc}{\contentsline {section}{\numberline {3}Verwandte Arbeiten}{24}{section.3}}
\newlabel{Kap3}{{3}{24}{Verwandte Arbeiten}{section.3}{}}
\@writefile{toc}{\contentsline {subsection}{\numberline {3.1}Literaturauswahl}{24}{subsection.3.1}}
\citation{Survey_Neurology}
\citation{Survey_Neurology}
\citation{Survey_Neurology}
\citation{Survey_Neurology}
\citation{Survey_Neurology}
\@writefile{lof}{\contentsline {figure}{\numberline {6}{\ignorespaces Literaturauswahlprozess PRISMA statement}}{25}{figure.caption.13}}
\newlabel{PRISMA_statement}{{6}{25}{Literaturauswahlprozess PRISMA statement}{figure.caption.13}{}}
\@writefile{toc}{\contentsline {subsection}{\numberline {3.2}Ergebnisse}{25}{subsection.3.2}}
\citation{Survey_Neurology}
\citation{Survey_Neurology}
\@writefile{lot}{\contentsline {table}{\numberline {1}{\ignorespaces Ergebnisse der Literaturanalyse}}{26}{table.caption.14}}
\newlabel{table_LitSuche}{{1}{26}{Ergebnisse der Literaturanalyse}{table.caption.14}{}}
\@writefile{toc}{\contentsline {section}{\numberline {4}Expertensysteme in der Medizin}{26}{section.4}}
\newlabel{Kap4}{{4}{26}{Expertensysteme in der Medizin}{section.4}{}}
\citation{MEDEXKRI}
\citation{EXMED}
\citation{MEDEXKRI}
\citation{MEDEXKRI}
\citation{Gaener}
\@writefile{toc}{\contentsline {subsection}{\numberline {4.1}Expertensysteme in der Medizin}{27}{subsection.4.1}}
\newlabel{sec:EXMED}{{4.1}{27}{Expertensysteme in der Medizin}{subsection.4.1}{}}
\@writefile{toc}{\contentsline {subsubsection}{\numberline {4.1.1}Motivation -- Anwendung von Expertensystemen in der Medizin}{27}{subsubsection.4.1.1}}
\newlabel{MotiEXMED}{{4.1.1}{27}{Motivation -- Anwendung von Expertensystemen in der Medizin}{subsubsection.4.1.1}{}}
\newlabel{EXMEDVor}{{4.1.1}{27}{Vorteile}{section*.15}{}}
\@writefile{toc}{\contentsline {paragraph}{\nonumberline Vorteile}{27}{section*.15}}
\citation{Gaener}
\citation{EXMED}
\citation{Gaener}
\citation{Gaener}
\citation{Wisch}
\citation{Wisch}
\@writefile{toc}{\contentsline {paragraph}{\nonumberline Nachteile}{28}{section*.16}}
\citation{EXMED}
\citation{Gaener}
\citation{Gaener}
\citation{EXMED}
\citation{EXMED}
\citation{MEDEXKRI}
\citation{MethodenWBS}
\citation{MedEx}
\citation{NameDSS}
\@writefile{toc}{\contentsline {subsubsection}{\numberline {4.1.2}Geschichte}{29}{subsubsection.4.1.2}}
\newlabel{Geschichte}{{4.1.2}{29}{Geschichte}{subsubsection.4.1.2}{}}
\citation{EXMED}
\citation{MethodenWBS}
\citation{MethodenWBS}
\citation{MethodenWBS}
\citation{MYCIN_VM}
\citation{EXMED}
\citation{MedEx}
\citation{MedEx}
\citation{MedEx}
\citation{MedEx}
\@writefile{lof}{\contentsline {figure}{\numberline {7}{\ignorespaces Beispiel f\IeC {\"u}r eine Regel aus MYCIN}}{30}{figure.caption.18}}
\newlabel{MYCIN_Regel}{{7}{30}{Beispiel für eine Regel aus MYCIN}{figure.caption.18}{}}
\@writefile{toc}{\contentsline {paragraph}{\nonumberline MYCIN}{30}{section*.17}}
\citation{MedEx}
\citation{MedEx}
\citation{EXMED}
\citation{CLI_DSS}
\citation{MedEx}
\citation{INTERNIST}
\citation{EXMED}
\@writefile{toc}{\contentsline {paragraph}{\nonumberline INTERNIST}{31}{section*.19}}
\citation{EXMED}
\citation{EXMED}
\citation{CASNET}
\citation{MedEx}
\citation{MedEx}
\citation{EXMED}
\citation{Ex1980}
\citation{EXMED}
\citation{Ex1980}
\citation{EXMED}
\citation{EXMED}
\citation{EXMED}
\@writefile{toc}{\contentsline {paragraph}{\nonumberline CADUCEUS}{32}{section*.20}}
\@writefile{toc}{\contentsline {paragraph}{\nonumberline CASNET}{32}{section*.21}}
\@writefile{toc}{\contentsline {paragraph}{\nonumberline PUFF}{32}{section*.22}}
\citation{CLI_DSS}
\citation{EXMED}
\citation{EXMED}
\citation{EXMED}
\citation{WWWEXPM}
\citation{WWWEXPM}
\citation{CLI_DSS}
\citation{WWWEXPM}
\@writefile{toc}{\contentsline {subsubsection}{\numberline {4.1.3}Bewertung der historischen Expertensysteme}{33}{subsubsection.4.1.3}}
\newlabel{BewEX}{{4.1.3}{33}{Bewertung der historischen Expertensysteme}{subsubsection.4.1.3}{}}
\citation{CLI_DSS}
\citation{WWWEXPM}
\citation{EXMED}
\citation{Ex1980}
\citation{EXMED}
\citation{MEDEXKRI}
\citation{MEDEXKRI}
\@writefile{toc}{\contentsline {subsubsection}{\numberline {4.1.4}Anwendungsm\IeC {\"o}glichkeiten von Expertensystemen in der Humanmedizin}{35}{subsubsection.4.1.4}}
\newlabel{Anw}{{4.1.4}{35}{Anwendungsmöglichkeiten von Expertensystemen in der Humanmedizin}{subsubsection.4.1.4}{}}
\@writefile{lof}{\contentsline {figure}{\numberline {8}{\ignorespaces Anwendungsm\IeC {\"o}glichkeiten von Expertensystemen in der Medizin}}{35}{figure.caption.23}}
\newlabel{Schaubild_AnwM}{{8}{35}{Anwendungsmöglichkeiten von Expertensystemen in der Medizin}{figure.caption.23}{}}
\citation{MEDEXKRI}
\citation{WWWEXPM}
\citation{MEDEXKRI}
\citation{MEDEXKRI}
\citation{MedDSS}
\citation{WWWEXPM}
\citation{Gaener}
\@writefile{toc}{\contentsline {paragraph}{\nonumberline Diagnoseunterst\IeC {\"u}tzung}{36}{section*.24}}
\@writefile{toc}{\contentsline {paragraph}{\nonumberline Lehre und Ausbildung}{36}{section*.25}}
\@writefile{toc}{\contentsline {paragraph}{\nonumberline Weitere Anwendungsm\IeC {\"o}glichkeiten}{36}{section*.26}}
\@writefile{toc}{\contentsline {subsubsection}{\numberline {4.1.5}Zusammenfassung}{37}{subsubsection.4.1.5}}
\newlabel{ZSM_EXMED}{{4.1.5}{37}{Zusammenfassung}{subsubsection.4.1.5}{}}
\@writefile{toc}{\contentsline {subsection}{\numberline {4.2}Knowledge Engineering in der Medizin}{37}{subsection.4.2}}
\newlabel{sec:KEMED}{{4.2}{37}{Knowledge Engineering in der Medizin}{subsection.4.2}{}}
\citation{MedEx}
\citation{MedEx}
\citation{MedEx}
\citation{MedEx}
\citation{MedEx}
\citation{MedEx}
\citation{MedEx}
\citation{MedEx}
\citation{MedEx}
\citation{MedEx}
\citation{MedEx}
\@writefile{toc}{\contentsline {subsubsection}{\numberline {4.2.1}Wissensarten in der Medizin}{38}{subsubsection.4.2.1}}
\newlabel{Wissensarten_MED}{{4.2.1}{38}{Wissensarten in der Medizin}{subsubsection.4.2.1}{}}
\@writefile{toc}{\contentsline {paragraph}{\nonumberline Physiologisches und pathophysiologisches Wissen}{38}{section*.27}}
\@writefile{toc}{\contentsline {paragraph}{\nonumberline Nosologisches Wissen}{38}{section*.28}}
\@writefile{toc}{\contentsline {paragraph}{\nonumberline \IeC {\"A}tiologisches Wissen}{38}{section*.29}}
\citation{MedEx}
\citation{MedEx}
\citation{MedEx}
\citation{MedEx}
\citation{MedEx}
\citation{MedEx}
\citation{MedEx}
\citation{MedEx}
\@writefile{toc}{\contentsline {paragraph}{\nonumberline Pharmakologisches Wissen}{39}{section*.30}}
\@writefile{toc}{\contentsline {paragraph}{\nonumberline Therapeutisches Wissen}{39}{section*.31}}
\@writefile{toc}{\contentsline {paragraph}{\nonumberline Diagnostisches Wissen}{39}{section*.32}}
\@writefile{toc}{\contentsline {paragraph}{\nonumberline Small World Hypothese}{39}{section*.33}}
\citation{MedEx}
\citation{MedEx}
\citation{DGNSchwindel}
\@writefile{toc}{\contentsline {subsubsection}{\numberline {4.2.2}Probleme beim Aufbau einer medizinischen Wissensbasis}{40}{subsubsection.4.2.2}}
\newlabel{Prob_KE_MED}{{4.2.2}{40}{Probleme beim Aufbau einer medizinischen Wissensbasis}{subsubsection.4.2.2}{}}
\citation{Laudon}
\citation{MethodenWBS}
\citation{Wisch}
\citation{RegelungFuzzy}
\citation{Fuzzy}
\citation{Fuzzy}
\citation{RegelungFuzzy}
\citation{RegelungFuzzy}
\@writefile{toc}{\contentsline {paragraph}{\nonumberline Abgrenzung:}{42}{section*.35}}
\@writefile{toc}{\contentsline {subsubsection}{\numberline {4.2.3}Prinzipieller L\IeC {\"o}sungsansatz}{42}{subsubsection.4.2.3}}
\newlabel{Loesung}{{4.2.3}{42}{Prinzipieller Lösungsansatz}{subsubsection.4.2.3}{}}
\citation{MedEx}
\citation{MedEx}
\@writefile{lof}{\contentsline {figure}{\numberline {9}{\ignorespaces Hohes Fieber - klassische und Fuzzy Logik}}{43}{figure.caption.36}}
\newlabel{Fieber}{{9}{43}{Hohes Fieber - klassische und Fuzzy Logik}{figure.caption.36}{}}
\@writefile{toc}{\contentsline {subsubsection}{\numberline {4.2.4}Zusammenfassung}{44}{subsubsection.4.2.4}}
\newlabel{ZSM_KEMED}{{4.2.4}{44}{Zusammenfassung}{subsubsection.4.2.4}{}}
\@writefile{toc}{\contentsline {section}{\numberline {5}Knowledge Engineering in der Neurologie}{44}{section.5}}
\newlabel{Kap5}{{5}{44}{Knowledge Engineering in der Neurologie}{section.5}{}}
\citation{MedEx}
\citation{MedEx}
\citation{AIS}
\citation{AIS}
\@writefile{toc}{\contentsline {subsection}{\numberline {5.1}Vor\IeC {\"u}berlegungen}{45}{subsection.5.1}}
\newlabel{Ueberlegungen}{{5.1}{45}{Vorüberlegungen}{subsection.5.1}{}}
\@writefile{toc}{\contentsline {paragraph}{\nonumberline Diagnostik in der Neurologie}{45}{section*.37}}
\@writefile{toc}{\contentsline {paragraph}{\nonumberline Einsatzzeitpunkt des Expertensystems}{45}{section*.38}}
\citation{MedEx}
\@writefile{toc}{\contentsline {paragraph}{\nonumberline Eingrenzung}{46}{section*.39}}
\@writefile{toc}{\contentsline {paragraph}{\nonumberline Ziel des Knowledge Engineering}{46}{section*.40}}
\@writefile{toc}{\contentsline {paragraph}{\nonumberline Abgrenzung}{46}{section*.41}}
\citation{DGN}
\citation{DGN}
\citation{DiffDiag}
\citation{NeuVes}
\@writefile{toc}{\contentsline {subsection}{\numberline {5.2}Wissensakquisition}{47}{subsection.5.2}}
\newlabel{WissAQ}{{5.2}{47}{Wissensakquisition}{subsection.5.2}{}}
\@writefile{toc}{\contentsline {subsubsection}{\numberline {5.2.1}Wissensquellen selektieren}{47}{subsubsection.5.2.1}}
\newlabel{WissenQuellen}{{5.2.1}{47}{Wissensquellen selektieren}{subsubsection.5.2.1}{}}
\citation{DGN}
\citation{DGNSchwindel}
\citation{DGNSchwindel}
\citation{DGNMWilson}
\@writefile{toc}{\contentsline {subsubsection}{\numberline {5.2.2}Wissenserhebung}{48}{subsubsection.5.2.2}}
\newlabel{WissensErh}{{5.2.2}{48}{Wissenserhebung}{subsubsection.5.2.2}{}}
\@writefile{lof}{\contentsline {figure}{\numberline {10}{\ignorespaces Teilschritte des Knowledge Engineering Prozesses}}{48}{figure.caption.42}}
\newlabel{KE_Process}{{10}{48}{Teilschritte des Knowledge Engineering Prozesses}{figure.caption.42}{}}
\citation{DGNSchwindel}
\citation{DGNSchwindel}
\citation{DiffDiag}
\citation{DGNSchwindel}
\citation{unterbergtest}
\citation{DiffDiag}
\@writefile{toc}{\contentsline {paragraph}{\nonumberline Benigner peripherer paroxysmaler Lagerungsschwindel}{49}{section*.43}}
\@writefile{toc}{\contentsline {paragraph}{\nonumberline Neuritis Vestibularis}{49}{section*.44}}
\citation{DGNSchwindel}
\citation{DGNSchwindel}
\citation{DGNSchwindel}
\citation{DGNSchwindel}
\citation{DGNSchwindel}
\citation{KlinikUlm}
\citation{DGNSchwindel}
\@writefile{toc}{\contentsline {paragraph}{\nonumberline Bilaterale Vestibulopathie}{50}{section*.45}}
\@writefile{toc}{\contentsline {paragraph}{\nonumberline Vestibularisparoxysmie}{50}{section*.46}}
\newlabel{SympMeniere}{{5.2.2}{50}{Morbus Menière}{section*.47}{}}
\@writefile{toc}{\contentsline {paragraph}{\nonumberline Morbus Meni\IeC {\`e}re}{50}{section*.47}}
\citation{DGNSchwindel}
\citation{DGNSchwindel}
\citation{DGNSchwindel}
\citation{DGNSchwindel}
\citation{DGNSchwindel}
\citation{DGNSchwindel}
\@writefile{toc}{\contentsline {paragraph}{\nonumberline Vestibul\IeC {\"a}re Migr\IeC {\"a}ne}{51}{section*.48}}
\@writefile{toc}{\contentsline {paragraph}{\nonumberline Phobischer Schwankschwindel}{51}{section*.49}}
\@writefile{toc}{\contentsline {paragraph}{\nonumberline Differentialdiagnose}{51}{section*.50}}
\citation{DGNSchwindel}
\citation{DGNSchwindel}
\citation{Stroke}
\citation{Duden}
\citation{DGNMWilson}
\citation{DGNMWilson}
\citation{DGNMWilson}
\@writefile{toc}{\contentsline {paragraph}{\nonumberline Morbus Wilson}{52}{section*.51}}
\citation{IEC}
\@writefile{lof}{\contentsline {figure}{\numberline {11}{\ignorespaces Score-Card Morbus Wilson}}{53}{figure.caption.52}}
\newlabel{Morbus_Wilson_Score}{{11}{53}{Score-Card Morbus Wilson}{figure.caption.52}{}}
\@writefile{toc}{\contentsline {subsubsection}{\numberline {5.2.3}Wissensformalisierung}{53}{subsubsection.5.2.3}}
\newlabel{Wissensform}{{5.2.3}{53}{Wissensformalisierung}{subsubsection.5.2.3}{}}
\citation{FLC}
\citation{FLC}
\@writefile{lof}{\contentsline {figure}{\numberline {12}{\ignorespaces Struktur des Funktionsblocks "`Morbus\_meniere"'}}{54}{figure.caption.53}}
\newlabel{FLC_morbus_meniere}{{12}{54}{Struktur des Funktionsblocks "`Morbus\_meniere"'}{figure.caption.53}{}}
\@writefile{lof}{\contentsline {figure}{\numberline {13}{\ignorespaces Funktionsblock in FCL}}{54}{figure.caption.54}}
\newlabel{Function_Block_FCL}{{13}{54}{Funktionsblock in FCL}{figure.caption.54}{}}
\citation{Fuzzy}
\citation{DiffDiag}
\@writefile{lof}{\contentsline {figure}{\numberline {14}{\ignorespaces Definition der Input-Variablen in FCL}}{55}{figure.caption.55}}
\newlabel{Input_Variables_Block_FCL}{{14}{55}{Definition der Input-Variablen in FCL}{figure.caption.55}{}}
\@writefile{lof}{\contentsline {figure}{\numberline {15}{\ignorespaces Definition der Output-Variablen in FCL}}{55}{figure.caption.56}}
\newlabel{Output_Variables_Block_FCL}{{15}{55}{Definition der Output-Variablen in FCL}{figure.caption.56}{}}
\citation{jFuzzyLogic}
\citation{jFuzzyLogic}
\@writefile{lof}{\contentsline {figure}{\numberline {16}{\ignorespaces Fuzzification der Variablen rotary\_vertigo in FCL}}{56}{figure.caption.57}}
\newlabel{Fuzzyfication_FCL}{{16}{56}{Fuzzification der Variablen rotary\_vertigo in FCL}{figure.caption.57}{}}
\citation{jFuzzyLogic}
\citation{jFuzzyLogic}
\citation{IEC}
\@writefile{lof}{\contentsline {figure}{\numberline {17}{\ignorespaces Zugeh\IeC {\"o}rigkeitsfunktion der Variable "`rotary\_vertigo"'}}{57}{figure.caption.58}}
\newlabel{Membershipfunction_rotary_vertigo}{{17}{57}{Zugehörigkeitsfunktion der Variable "`rotary\_vertigo"'}{figure.caption.58}{}}
\@writefile{lof}{\contentsline {figure}{\numberline {18}{\ignorespaces Defuzzification der Output-Variablen "`Morbus\_meniere"' in FCL}}{58}{figure.caption.59}}
\newlabel{Defuzzyfication_FCL}{{18}{58}{Defuzzification der Output-Variablen "`Morbus\_meniere"' in FCL}{figure.caption.59}{}}
\@writefile{lof}{\contentsline {figure}{\numberline {19}{\ignorespaces Zugeh\IeC {\"o}rigkeitsfunktion der Variable "`Morbus\_meniere"'}}{58}{figure.caption.60}}
\newlabel{Membershipfunction_morbus_meniere}{{19}{58}{Zugehörigkeitsfunktion der Variable "`Morbus\_meniere"'}{figure.caption.60}{}}
\citation{jFuzzyLogic}
\@writefile{lof}{\contentsline {figure}{\numberline {20}{\ignorespaces Regelblock von "`Morbus\_meniere"' in FCL}}{59}{figure.caption.61}}
\newlabel{Ruleblock_FCL}{{20}{59}{Regelblock von "`Morbus\_meniere"' in FCL}{figure.caption.61}{}}
\@writefile{toc}{\contentsline {subsubsection}{\numberline {5.2.4}Zusammenfassung Wissensakquisition}{59}{subsubsection.5.2.4}}
\@writefile{toc}{\contentsline {subsection}{\numberline {5.3}Wissensoperationalisierung}{59}{subsection.5.3}}
\newlabel{WissOp}{{5.3}{59}{Wissensoperationalisierung}{subsection.5.3}{}}
\citation{Fallbuch}
\citation{Fallbuch}
\citation{Fallbuch}
\@writefile{toc}{\contentsline {subsection}{\numberline {5.4}Evaluation}{60}{subsection.5.4}}
\newlabel{Evaluation}{{5.4}{60}{Evaluation}{subsection.5.4}{}}
\@writefile{toc}{\contentsline {subsubsection}{\numberline {5.4.1}1. Fall: "`57-J\IeC {\"a}hrige mit akutem Drehschwindel mit Verst\IeC {\"a}rkung bei Kopfbewegungen"' \cite  [S.26]{Fallbuch}}{60}{subsubsection.5.4.1}}
\newlabel{Fall}{{5.4.1}{60}{1. Fall: "`57-Jährige mit akutem Drehschwindel mit Verstärkung bei Kopfbewegungen"' \cite [S.26]{Fallbuch}}{subsubsection.5.4.1}{}}
\citation{Duden}
\citation{Fallbuch}
\citation{jFuzzyLogic}
\citation{jFuzzyLogic}
\citation{jFuzzyLogic}
\citation{jFuzzyLogic}
\@writefile{lof}{\contentsline {figure}{\numberline {21}{\ignorespaces Input-Wert der Variable "`rotary\_vertigo"'}}{62}{figure.caption.62}}
\newlabel{rotary_vertigo_BPPL}{{21}{62}{Input-Wert der Variable "`rotary\_vertigo"'}{figure.caption.62}{}}
\citation{jFuzzyLogic}
\citation{jFuzzyLogic}
\@writefile{lof}{\contentsline {figure}{\numberline {22}{\ignorespaces Input-Wert der Variable "`vertigo\_duration"'}}{63}{figure.caption.63}}
\newlabel{vertigo_duration_BPPL}{{22}{63}{Input-Wert der Variable "`vertigo\_duration"'}{figure.caption.63}{}}
\@writefile{lof}{\contentsline {figure}{\numberline {23}{\ignorespaces Input-Wert der Variable "`dix\_hallpike\_test"'}}{63}{figure.caption.64}}
\newlabel{dix_hallpike_test_BPPL}{{23}{63}{Input-Wert der Variable "`dix\_hallpike\_test"'}{figure.caption.64}{}}
\citation{jFuzzyLogic}
\citation{jFuzzyLogic}
\@writefile{lot}{\contentsline {table}{\numberline {2}{\ignorespaces Input-Werte f\IeC {\"u}r die Evaluation von "`Nystagmus\_of\_benign\_paroxysmal\_type"'}}{64}{table.caption.65}}
\newlabel{table_Eva_BPPL}{{2}{64}{Input-Werte für die Evaluation von "`Nystagmus\_of\_benign\_paroxysmal\_type"'}{table.caption.65}{}}
\@writefile{lof}{\contentsline {figure}{\numberline {24}{\ignorespaces Ergebnis der linguistischen Variable "`Nystagmus\_of\_benign\_paroxysmal\_type"' beim 1.Fall}}{64}{figure.caption.66}}
\newlabel{BPPL_result}{{24}{64}{Ergebnis der linguistischen Variable "`Nystagmus\_of\_benign\_paroxysmal\_type"' beim 1.Fall}{figure.caption.66}{}}
\citation{jFuzzyLogic}
\citation{jFuzzyLogic}
\@writefile{lof}{\contentsline {figure}{\numberline {25}{\ignorespaces Regel f\IeC {\"u}r den 1. Fall}}{65}{figure.caption.67}}
\@writefile{toc}{\contentsline {subsubsection}{\numberline {5.4.2}Kontrollroutine}{65}{subsubsection.5.4.2}}
\newlabel{control}{{5.4.2}{65}{Kontrollroutine}{subsubsection.5.4.2}{}}
\@writefile{lof}{\contentsline {figure}{\numberline {26}{\ignorespaces Input-Wert der Variablen "`dix\_hallpike\_test"' bei negativer Lagerungsprobe}}{65}{figure.caption.68}}
\newlabel{BPPL_control}{{26}{65}{Input-Wert der Variablen "`dix\_hallpike\_test"' bei negativer Lagerungsprobe}{figure.caption.68}{}}
\citation{jFuzzyLogic}
\citation{jFuzzyLogic}
\@writefile{lot}{\contentsline {table}{\numberline {3}{\ignorespaces Input-Werte f\IeC {\"u}r die Kontrolle von "`Nystagmus\_of\_benign\_paroxysmal\_type"'}}{66}{table.caption.69}}
\newlabel{table_Eva_BPPL_control}{{3}{66}{Input-Werte für die Kontrolle von "`Nystagmus\_of\_benign\_paroxysmal\_type"'}{table.caption.69}{}}
\@writefile{lof}{\contentsline {figure}{\numberline {27}{\ignorespaces Regel zur Kontrolle}}{66}{figure.caption.70}}
\@writefile{lof}{\contentsline {figure}{\numberline {28}{\ignorespaces Ergebnis der linguistischen Variable "`Nystagmus\_of\_benign\_paroxysmal\_type"' beim Eingabe der Werte aus Tabelle \ref  {table_Eva_BPPL_control}}}{67}{figure.caption.71}}
\newlabel{BPPL_result_control}{{28}{67}{Ergebnis der linguistischen Variable "`Nystagmus\_of\_benign\_paroxysmal\_type"' beim Eingabe der Werte aus Tabelle \ref {table_Eva_BPPL_control}}{figure.caption.71}{}}
\@writefile{toc}{\contentsline {subsubsection}{\numberline {5.4.3}Nachweis der korrekten Funktionsweise der anderen Funktionsbl\IeC {\"o}cke}{67}{subsubsection.5.4.3}}
\newlabel{NachweisFCL}{{5.4.3}{67}{Nachweis der korrekten Funktionsweise der anderen Funktionsblöcke}{subsubsection.5.4.3}{}}
\@writefile{toc}{\contentsline {paragraph}{\nonumberline Neuritis Vestibularis}{67}{section*.72}}
\@writefile{lot}{\contentsline {table}{\numberline {4}{\ignorespaces Eingabewerte des Funktionsblocks "`Neuritis\_vestibularis"'\relax }}{67}{table.caption.73}}
\@writefile{toc}{\contentsline {paragraph}{\nonumberline Bilaterale Vestibulopathie}{68}{section*.74}}
\@writefile{lot}{\contentsline {table}{\numberline {5}{\ignorespaces Eingabewerte des Funktionsblocks "`Bilaterale\_vestibulopathie"'\relax }}{68}{table.caption.75}}
\@writefile{toc}{\contentsline {paragraph}{\nonumberline Vestibularisparoxysmie}{68}{section*.76}}
\@writefile{lot}{\contentsline {table}{\numberline {6}{\ignorespaces Eingabewerte des Funktionsblocks "`Vestibularisparoxysmie"'\relax }}{69}{table.caption.77}}
\@writefile{toc}{\contentsline {paragraph}{\nonumberline Morbus Meni\IeC {\`e}re}{69}{section*.78}}
\@writefile{lot}{\contentsline {table}{\numberline {7}{\ignorespaces Eingabewerte des Funktionsblocks "`Morbus\_meniere"'\relax }}{69}{table.caption.79}}
\@writefile{toc}{\contentsline {paragraph}{\nonumberline Vestibul\IeC {\"a}re Migr\IeC {\"a}ne}{70}{section*.80}}
\@writefile{lot}{\contentsline {table}{\numberline {8}{\ignorespaces Eingabewerte des Funktionsblocks "`Vestibular\_migraine"'\relax }}{70}{table.caption.81}}
\@writefile{toc}{\contentsline {paragraph}{\nonumberline Phobischer Schwankschwindel}{70}{section*.82}}
\@writefile{lot}{\contentsline {table}{\numberline {9}{\ignorespaces Eingabewerte des Funktionsblocks "`Phobic\_postural\_vertigo"'\relax }}{70}{table.caption.83}}
\citation{Fallbuch}
\@writefile{toc}{\contentsline {paragraph}{\nonumberline Morbus Wilson}{71}{section*.84}}
\@writefile{lot}{\contentsline {table}{\numberline {10}{\ignorespaces Eingabewerte des Funktionsblocks "`Morbus\_Wilson"'\relax }}{71}{table.caption.85}}
\@writefile{toc}{\contentsline {subsubsection}{\numberline {5.4.4}Zusammenfassung Evaluation}{71}{subsubsection.5.4.4}}
\@writefile{toc}{\contentsline {subsection}{\numberline {5.5}Zusammenfassung}{72}{subsection.5.5}}
\@writefile{toc}{\contentsline {section}{\numberline {6}Fazit}{72}{section.6}}
\newlabel{Kap6}{{6}{72}{Fazit}{section.6}{}}
\@writefile{toc}{\contentsline {section}{\numberline {7}Ausblick}{74}{section.7}}
\newlabel{Kap7}{{7}{74}{Ausblick}{section.7}{}}
\bibstyle{alphaurl}
\bibdata{BA_Lit}
\bibcite{NeuVes}{AAB06}
\bibcite{SystemeFuerExperten}{BH94}
\bibcite{MethodenWBS}{BKI14}
\bibcite{jFuzzyLogic}{CAF13}
\bibcite{DefEx}{Def15}
\bibcite{DGNMWilson}{DGN12a}
\bibcite{DGNSchwindel}{DGN12b}
\bibcite{DGN}{DGN15}
\bibcite{NWZ}{DPA15}
\bibcite{Duden}{Dud06}
\bibcite{Stroke}{fAuF12}
\bibcite{Ex1980}{Fei80}
\bibcite{KM_Frey}{FL14}
\@writefile{toc}{\contentsline {section}{\numberline {A}Literaturverzeichnis}{76}{appendix.A}}
\bibcite{MYCIN_VM}{FSB80}
\bibcite{EnzWINF}{Gab15}
\bibcite{Gaener}{G{\"a}{\ss }}
\bibcite{Fallbuch}{GB13}
\bibcite{KGoetz}{G{\"o}t02}
\bibcite{MEDEXKRI}{GS96}
\bibcite{unterbergtest}{Hai04}
\bibcite{EXMED}{He{\ss }02}
\bibcite{IEC}{IEC97}
\bibcite{Survey_Neurology}{JKS14}
\bibcite{FLC}{KA13}
\bibcite{Fuzzy}{KGK95}
\bibcite{KlinikUlm}{Kli13}
\bibcite{Krcmar}{Krc15}
\bibcite{Kunze}{Kun}
\bibcite{CASNET}{KW82}
\bibcite{Laudon}{LLS12}
\bibcite{DiffDiag}{MBD05}
\bibcite{INTERNIST}{MMC86}
\bibcite{CLI_DSS}{MSS06}
\bibcite{NameDSS}{Nam06}
\bibcite{RegelungFuzzy}{OJ09}
\bibcite{DHD}{PSM10}
\bibcite{MedDSS}{Pup14}
\bibcite{Reinmann}{Rei09}
\bibcite{KE}{SBF98}
\bibcite{WWWEXPM}{Sch99}
\bibcite{MD_Cardio}{SGP14}
\bibcite{MedEx}{SS08}
\bibcite{CBR}{SSB07}
\bibcite{ENZWIONTO}{Stu15}
\bibcite{Wisch}{Wis02}
\bibcite{AIS}{WJKA15}
\@writefile{toc}{\contentsline {section}{\numberline {B}Funktionsbl\IeC {\"o}cke der Krankheiten}{80}{appendix.B}}
\newlabel{FCLDateien}{{B}{80}{Funktionsblöcke der Krankheiten}{appendix.B}{}}
\@writefile{toc}{\contentsline {subsection}{\numberline {B.1}Benigner peripherer paroxysmaler Lagerungsschwindel}{80}{subsection.B.1}}
\newlabel{BPPL}{{B.1}{80}{Benigner peripherer paroxysmaler Lagerungsschwindel}{subsection.B.1}{}}
\@writefile{toc}{\contentsline {paragraph}{\nonumberline Linguistische Variablen des Funktionsblocks "`Nystagmus\_of\_benign\_paroxysmal\_type"'}{80}{section*.87}}
\@writefile{lot}{\contentsline {table}{\numberline {11}{\ignorespaces Input-Variablen des Funktionsblocks "`Nystagmus\_of\_benign\_paroxysmal\_type"'\relax }}{80}{table.caption.88}}
\@writefile{lot}{\contentsline {table}{\numberline {12}{\ignorespaces Output-Variablen des Funktionsblocks "`Nystagmus\_of\_benign\_paroxysmal\_type"'\relax }}{80}{table.caption.89}}
\@writefile{toc}{\contentsline {paragraph}{\nonumberline Funktionsblock "`Nystagmus\_of\_benign\_paroxysmal\_type"'}{80}{section*.90}}
\@writefile{toc}{\contentsline {subsection}{\numberline {B.2}Neuritis Vestibularis}{82}{subsection.B.2}}
\newlabel{NeuVes}{{B.2}{82}{Neuritis Vestibularis}{subsection.B.2}{}}
\@writefile{toc}{\contentsline {paragraph}{\nonumberline Linguistische Variablen des Funktionsblocks "`Neuritis\_Vestibularis"'}{82}{section*.91}}
\@writefile{lot}{\contentsline {table}{\numberline {13}{\ignorespaces Input-Variablen des Funktionsblocks "`Neuritis\_Vestibularis"'\relax }}{83}{table.caption.92}}
\@writefile{lot}{\contentsline {table}{\numberline {14}{\ignorespaces Output-Variablen des Funktionsblocks "`Neuritis\_Vestibularis"'\relax }}{83}{table.caption.93}}
\@writefile{toc}{\contentsline {paragraph}{\nonumberline Funktionsblock "`Neuritis\_Vestibularis"'}{83}{section*.94}}
\@writefile{toc}{\contentsline {subsection}{\numberline {B.3}Bilaterale Vestibulopathie}{86}{subsection.B.3}}
\newlabel{BiVes}{{B.3}{86}{Bilaterale Vestibulopathie}{subsection.B.3}{}}
\@writefile{toc}{\contentsline {paragraph}{\nonumberline Linguistische Variablen des Funktionsblocks "`Bilaterale\_vestibulopathie"'}{86}{section*.95}}
\@writefile{lot}{\contentsline {table}{\numberline {15}{\ignorespaces Input-Variablen des Funktionsblocks "`Bilaterale\_vestibulopathie"'\relax }}{86}{table.caption.96}}
\@writefile{lot}{\contentsline {table}{\numberline {16}{\ignorespaces Output-Variablen des Funktionsblocks "`Bilaterale\_vestibulopathie"'\relax }}{87}{table.caption.97}}
\@writefile{toc}{\contentsline {paragraph}{\nonumberline Funktionsblock "`Bilaterale\_vestibulopathie"'}{87}{section*.98}}
\@writefile{toc}{\contentsline {subsection}{\numberline {B.4}Vestibularisparoxysmie}{90}{subsection.B.4}}
\newlabel{Vestibularisparoxysmie}{{B.4}{90}{Vestibularisparoxysmie}{subsection.B.4}{}}
\@writefile{toc}{\contentsline {paragraph}{\nonumberline Linguistische Variablen des Funktionsblocks "`Vestibularisparoxysmie"'}{90}{section*.99}}
\@writefile{lot}{\contentsline {table}{\numberline {17}{\ignorespaces Input-Variablen des Funktionsblocks "`Vestibularisparoxysmie"'\relax }}{90}{table.caption.100}}
\@writefile{lot}{\contentsline {table}{\numberline {18}{\ignorespaces Output-Variablen des Funktionsblocks "`Vestibularisparoxysmie"'\relax }}{90}{table.caption.101}}
\@writefile{toc}{\contentsline {paragraph}{\nonumberline Funktionsblock "`Vestibularisparoxysmie"'}{90}{section*.102}}
\@writefile{toc}{\contentsline {subsection}{\numberline {B.5}Morbus Meni\IeC {\`e}re}{92}{subsection.B.5}}
\newlabel{Meniere}{{B.5}{92}{Morbus Menière}{subsection.B.5}{}}
\@writefile{toc}{\contentsline {paragraph}{\nonumberline Linguistische Variablen des Funktionsblocks "`Morbus\_meniere"'}{92}{section*.103}}
\newlabel{FCL_morbus_meniere_table}{{\caption@xref {FCL_morbus_meniere_table}{ on input line 689}}{92}{Linguistische Variablen des Funktionsblocks "`Morbus\_meniere"'}{table.caption.104}{}}
\@writefile{lot}{\contentsline {table}{\numberline {19}{\ignorespaces Input-Variablen des Funktionsblocks "`Morbus\_meniere"'\relax }}{92}{table.caption.104}}
\newlabel{FCL_morbus_meniere_table_output}{{\caption@xref {FCL_morbus_meniere_table_output}{ on input line 705}}{93}{Linguistische Variablen des Funktionsblocks "`Morbus\_meniere"'}{table.caption.105}{}}
\@writefile{lot}{\contentsline {table}{\numberline {20}{\ignorespaces Output-Variablen des Funktionsblocks "`Morbus\_meniere"'\relax }}{93}{table.caption.105}}
\@writefile{toc}{\contentsline {paragraph}{\nonumberline Funktionsblock "`Morbus\_meniere"'}{93}{section*.106}}
\@writefile{toc}{\contentsline {subsection}{\numberline {B.6}Vestibul\IeC {\"a}re Migr\IeC {\"a}ne}{95}{subsection.B.6}}
\newlabel{migraine}{{B.6}{95}{Vestibuläre Migräne}{subsection.B.6}{}}
\@writefile{toc}{\contentsline {paragraph}{\nonumberline Linguistische Variablen des Funktionsblocks "`Vestibular\_migraine"'}{95}{section*.107}}
\@writefile{lot}{\contentsline {table}{\numberline {21}{\ignorespaces Input-Variablen des Funktionsblocks "`Vestibular\_migraine"'\relax }}{95}{table.caption.108}}
\@writefile{lot}{\contentsline {table}{\numberline {22}{\ignorespaces Output-Variablen des Funktionsblocks "`Vestibular\_migraine"'\relax }}{95}{table.caption.109}}
\@writefile{toc}{\contentsline {paragraph}{\nonumberline Funktionsblock "`Vestibular\_migraine"'}{95}{section*.110}}
\@writefile{toc}{\contentsline {subsection}{\numberline {B.7}Phobischer Schwankschwindel}{98}{subsection.B.7}}
\newlabel{Phob}{{B.7}{98}{Phobischer Schwankschwindel}{subsection.B.7}{}}
\@writefile{toc}{\contentsline {paragraph}{\nonumberline Linguistische Variablen des Funktionsblocks "`Phobic\_postural\_vertigo"'}{98}{section*.111}}
\@writefile{lot}{\contentsline {table}{\numberline {23}{\ignorespaces Input-Variablen des Funktionsblocks "`Phobic\_postural\_vertigo"'\relax }}{98}{table.caption.112}}
\@writefile{lot}{\contentsline {table}{\numberline {24}{\ignorespaces Output-Variablen des Funktionsblocks "`Phobic\_postural\_vertigo"'\relax }}{98}{table.caption.113}}
\@writefile{toc}{\contentsline {paragraph}{\nonumberline Funktionsblock "`Phobic\_postural\_vertigo"'}{99}{section*.114}}
\@writefile{toc}{\contentsline {subsection}{\numberline {B.8}Morbus Wilson}{101}{subsection.B.8}}
\newlabel{Wilson}{{B.8}{101}{Morbus Wilson}{subsection.B.8}{}}
\@writefile{toc}{\contentsline {paragraph}{\nonumberline Linguistische Variablen des Funktionsblocks "`Morbus\_wilson"'}{101}{section*.115}}
\@writefile{lot}{\contentsline {table}{\numberline {25}{\ignorespaces Input-Variablen des Funktionsblocks "`Morbus\_wilson"'\relax }}{101}{table.caption.116}}
\@writefile{lot}{\contentsline {table}{\numberline {26}{\ignorespaces Output-Variablen des Funktionsblocks "`Morbus\_wilson"'\relax }}{101}{table.caption.117}}
\@writefile{toc}{\contentsline {paragraph}{\nonumberline Funktionsblock "`Morbus\_wilson"'}{101}{section*.118}}
\@writefile{toc}{\contentsline {section}{\numberline {C}Abschlie\IeC {\ss }ende Erkl\IeC {\"a}rung}{103}{appendix.C}}
\global\@altsecnumformattrue
