\relax 
\providecommand\hyper@newdestlabel[2]{}
\citation{NWZ}
\citation{Gaener}
\citation{MEDEXKRI}
\citation{MedEx}
\@writefile{toc}{\contentsline {section}{\numberline {1}Einleitung}{5}{section.1}}
\newlabel{Kap1}{{1}{5}{Einleitung}{section.1}{}}
\@writefile{toc}{\contentsline {subsection}{\numberline {1.1}Motivation}{5}{subsection.1.1}}
\citation{MedEx}
\citation{DHD}
\citation{MD_Cardio}
\citation{MedEx}
\citation{MedEx}
\citation{MedEx}
\citation{MedEx}
\citation{Gaener}
\citation{MEDEXKRI}
\citation{MEDEXKRI}
\citation{MEDEXKRI}
\citation{MEDEXKRI}
\citation{MedEx}
\citation{MedEx}
\@writefile{toc}{\contentsline {subsubsection}{\numberline {1.1.1}Nutzung von Expertensystemen in der Medizin}{7}{subsubsection.1.1.1}}
\@writefile{toc}{\contentsline {subsection}{\numberline {1.2}Problemstellung}{7}{subsection.1.2}}
\citation{MedEx}
\@writefile{toc}{\contentsline {subsection}{\numberline {1.3}Zielsetzung}{8}{subsection.1.3}}
\@writefile{toc}{\contentsline {subsection}{\numberline {1.4}Aufbau dieser Arbeit}{8}{subsection.1.4}}
\@setckpt{Einleitung}{
\setcounter{page}{10}
\setcounter{equation}{0}
\setcounter{enumi}{0}
\setcounter{enumii}{0}
\setcounter{enumiii}{0}
\setcounter{enumiv}{0}
\setcounter{footnote}{2}
\setcounter{mpfootnote}{0}
\setcounter{part}{0}
\setcounter{section}{1}
\setcounter{subsection}{4}
\setcounter{subsubsection}{0}
\setcounter{paragraph}{0}
\setcounter{subparagraph}{0}
\setcounter{figure}{0}
\setcounter{table}{0}
\setcounter{ContinuedFloat}{0}
\setcounter{FancyVerbLine}{0}
\setcounter{Item}{0}
\setcounter{Hfootnote}{2}
\setcounter{bookmark@seq@number}{8}
\setcounter{section@level}{2}
}
