\relax 
\providecommand\hyper@newdestlabel[2]{}
\citation{MEDEXKRI}
\citation{EXMED}
\citation{MEDEXKRI}
\citation{MEDEXKRI}
\citation{Gaener}
\@writefile{toc}{\contentsline {section}{\numberline {4}Expertensysteme in der Medizin}{27}{section.4}}
\newlabel{Kap4}{{4}{27}{Expertensysteme in der Medizin}{section.4}{}}
\@writefile{toc}{\contentsline {subsection}{\numberline {4.1}Expertensysteme in der Medizin}{27}{subsection.4.1}}
\newlabel{sec:EXMED}{{4.1}{27}{Expertensysteme in der Medizin}{subsection.4.1}{}}
\@writefile{toc}{\contentsline {subsubsection}{\numberline {4.1.1}Motivation -- Anwendung von Expertensystemen in der Medizin}{27}{subsubsection.4.1.1}}
\newlabel{MotiEXMED}{{4.1.1}{27}{Motivation -- Anwendung von Expertensystemen in der Medizin}{subsubsection.4.1.1}{}}
\newlabel{EXMEDVor}{{4.1.1}{27}{Vorteile}{section*.16}{}}
\@writefile{toc}{\contentsline {paragraph}{\nonumberline Vorteile}{27}{section*.16}}
\citation{Gaener}
\citation{EXMED}
\citation{Gaener}
\citation{Gaener}
\citation{Wisch}
\citation{Wisch}
\citation{EXMED}
\citation{Gaener}
\citation{Gaener}
\citation{EXMED}
\citation{EXMED}
\citation{MEDEXKRI}
\citation{MethodenWBS}
\citation{MedEx}
\citation{NameDSS}
\@writefile{toc}{\contentsline {paragraph}{\nonumberline Nachteile}{29}{section*.17}}
\@writefile{toc}{\contentsline {subsubsection}{\numberline {4.1.2}Geschichte}{29}{subsubsection.4.1.2}}
\newlabel{Geschichte}{{4.1.2}{29}{Geschichte}{subsubsection.4.1.2}{}}
\citation{EXMED}
\citation{MethodenWBS}
\citation{MethodenWBS}
\citation{MethodenWBS}
\citation{MYCIN_VM}
\citation{EXMED}
\citation{MedEx}
\citation{MedEx}
\citation{MedEx}
\citation{MedEx}
\@writefile{lof}{\contentsline {figure}{\numberline {7}{\ignorespaces Beispiel f\IeC {\"u}r eine Regel aus MYCIN}}{30}{figure.caption.19}}
\newlabel{MYCIN_Regel}{{7}{30}{Beispiel für eine Regel aus MYCIN}{figure.caption.19}{}}
\@writefile{toc}{\contentsline {paragraph}{\nonumberline MYCIN}{30}{section*.18}}
\citation{MedEx}
\citation{MedEx}
\citation{EXMED}
\citation{CLI_DSS}
\citation{MedEx}
\citation{INTERNIST}
\@writefile{toc}{\contentsline {paragraph}{\nonumberline INTERNIST}{31}{section*.20}}
\citation{EXMED}
\citation{EXMED}
\citation{EXMED}
\citation{CASNET}
\citation{MedEx}
\citation{MedEx}
\citation{EXMED}
\citation{Ex1980}
\citation{EXMED}
\citation{Ex1980}
\citation{EXMED}
\citation{EXMED}
\citation{EXMED}
\@writefile{toc}{\contentsline {paragraph}{\nonumberline CADUCEUS}{32}{section*.21}}
\@writefile{toc}{\contentsline {paragraph}{\nonumberline CASNET}{32}{section*.22}}
\@writefile{toc}{\contentsline {paragraph}{\nonumberline PUFF}{32}{section*.23}}
\citation{CLI_DSS}
\citation{EXMED}
\citation{EXMED}
\citation{EXMED}
\citation{WWWEXPM}
\citation{WWWEXPM}
\citation{CLI_DSS}
\citation{WWWEXPM}
\@writefile{toc}{\contentsline {subsubsection}{\numberline {4.1.3}Bewertung der historischen Expertensysteme}{33}{subsubsection.4.1.3}}
\newlabel{BewEX}{{4.1.3}{33}{Bewertung der historischen Expertensysteme}{subsubsection.4.1.3}{}}
\citation{CLI_DSS}
\citation{WWWEXPM}
\citation{EXMED}
\citation{Ex1980}
\citation{EXMED}
\citation{MEDEXKRI}
\citation{MEDEXKRI}
\citation{MEDEXKRI}
\citation{WWWEXPM}
\citation{MEDEXKRI}
\@writefile{toc}{\contentsline {subsubsection}{\numberline {4.1.4}Anwendungsm\IeC {\"o}glichkeiten von Expertensystemen in der Humanmedizin}{35}{subsubsection.4.1.4}}
\newlabel{Anw}{{4.1.4}{35}{Anwendungsmöglichkeiten von Expertensystemen in der Humanmedizin}{subsubsection.4.1.4}{}}
\@writefile{toc}{\contentsline {paragraph}{\nonumberline Diagnoseunterst\IeC {\"u}tzung}{35}{section*.24}}
\@writefile{toc}{\contentsline {paragraph}{\nonumberline Lehre/Ausbildung}{35}{section*.25}}
\citation{MEDEXKRI}
\citation{MedDSS}
\citation{WWWEXPM}
\citation{Gaener}
\@writefile{toc}{\contentsline {paragraph}{\nonumberline Weitere Anwendungsm\IeC {\"o}glichkeiten}{36}{section*.26}}
\@writefile{toc}{\contentsline {subsubsection}{\numberline {4.1.5}Zusammenfassung}{36}{subsubsection.4.1.5}}
\newlabel{ZSM_EXMED}{{4.1.5}{36}{Zusammenfassung}{subsubsection.4.1.5}{}}
\citation{MedEx}
\citation{MedEx}
\citation{MedEx}
\citation{MedEx}
\citation{MedEx}
\citation{MedEx}
\citation{MedEx}
\citation{MedEx}
\@writefile{toc}{\contentsline {subsection}{\numberline {4.2}Knowledge Engineering in der Medizin}{37}{subsection.4.2}}
\newlabel{sec:KEMED}{{4.2}{37}{Knowledge Engineering in der Medizin}{subsection.4.2}{}}
\@writefile{toc}{\contentsline {subsubsection}{\numberline {4.2.1}Wissensarten in der Medizin}{37}{subsubsection.4.2.1}}
\newlabel{Wissensarten_MED}{{4.2.1}{37}{Wissensarten in der Medizin}{subsubsection.4.2.1}{}}
\@writefile{toc}{\contentsline {paragraph}{\nonumberline Physiologisches und pathophysiologisches Wissen}{37}{section*.27}}
\citation{MedEx}
\citation{MedEx}
\citation{MedEx}
\citation{MedEx}
\citation{MedEx}
\citation{MedEx}
\citation{MedEx}
\citation{MedEx}
\@writefile{toc}{\contentsline {paragraph}{\nonumberline Nosologisches Wissen}{38}{section*.28}}
\@writefile{toc}{\contentsline {paragraph}{\nonumberline \IeC {\"A}tiologisches Wissen}{38}{section*.29}}
\@writefile{toc}{\contentsline {paragraph}{\nonumberline Pharmakologisches Wissen}{38}{section*.30}}
\@writefile{toc}{\contentsline {paragraph}{\nonumberline Therapeutisches Wissen}{38}{section*.31}}
\@writefile{toc}{\contentsline {paragraph}{\nonumberline Diagnostisches Wissen}{38}{section*.32}}
\citation{MedEx}
\citation{MedEx}
\citation{MedEx}
\citation{MedEx}
\citation{MedEx}
\@writefile{toc}{\contentsline {paragraph}{\nonumberline Small World Hypothese}{39}{section*.33}}
\@writefile{toc}{\contentsline {subsubsection}{\numberline {4.2.2}Probleme beim Aufbau einer medizinischen Wissensbasis}{39}{subsubsection.4.2.2}}
\newlabel{Prob_KE_MED}{{4.2.2}{39}{Probleme beim Aufbau einer medizinischen Wissensbasis}{subsubsection.4.2.2}{}}
\citation{DGNSchwindel}
\citation{Laudon}
\citation{MethodenWBS}
\citation{Wisch}
\citation{RegelungFuzzy}
\@writefile{toc}{\contentsline {paragraph}{\nonumberline Abgrenzung:}{41}{section*.35}}
\@writefile{toc}{\contentsline {subsubsection}{\numberline {4.2.3}Prinzipieller L\IeC {\"o}sungsansatz}{41}{subsubsection.4.2.3}}
\newlabel{Loesung}{{4.2.3}{41}{Prinzipieller Lösungsansatz}{subsubsection.4.2.3}{}}
\citation{Fuzzy}
\citation{Fuzzy}
\citation{RegelungFuzzy}
\citation{RegelungFuzzy}
\citation{MedEx}
\citation{MedEx}
\@writefile{lof}{\contentsline {figure}{\numberline {8}{\ignorespaces Hohes Fieber - klassische und Fuzzy Logik}}{42}{figure.caption.36}}
\newlabel{Fieber}{{8}{42}{Hohes Fieber - klassische und Fuzzy Logik}{figure.caption.36}{}}
\@writefile{toc}{\contentsline {subsubsection}{\numberline {4.2.4}Zusammenfassung}{43}{subsubsection.4.2.4}}
\newlabel{ZSM_KEMED}{{4.2.4}{43}{Zusammenfassung}{subsubsection.4.2.4}{}}
\@setckpt{EXP_Medizin}{
\setcounter{page}{45}
\setcounter{equation}{0}
\setcounter{enumi}{0}
\setcounter{enumii}{0}
\setcounter{enumiii}{0}
\setcounter{enumiv}{0}
\setcounter{footnote}{17}
\setcounter{mpfootnote}{0}
\setcounter{part}{0}
\setcounter{section}{4}
\setcounter{subsection}{2}
\setcounter{subsubsection}{4}
\setcounter{paragraph}{0}
\setcounter{subparagraph}{0}
\setcounter{figure}{8}
\setcounter{table}{1}
\setcounter{ContinuedFloat}{0}
\setcounter{FancyVerbLine}{0}
\setcounter{Item}{0}
\setcounter{Hfootnote}{17}
\setcounter{bookmark@seq@number}{37}
\setcounter{section@level}{3}
}
