\relax 
\providecommand\hyper@newdestlabel[2]{}
\citation{KM_Frey}
\citation{Reinmann}
\citation{Kunze}
\citation{Krcmar}
\citation{Krcmar}
\citation{Kunze}
\citation{Reinmann}
\citation{Krcmar}
\citation{Reinmann}
\@writefile{toc}{\contentsline {section}{\numberline {2}Grundlagen}{10}{section.2}}
\newlabel{Kap2}{{2}{10}{Grundlagen}{section.2}{}}
\@writefile{toc}{\contentsline {subsection}{\numberline {2.1}Wissen}{10}{subsection.2.1}}
\newlabel{sec:Wissen}{{2.1}{10}{Wissen}{subsection.2.1}{}}
\@writefile{toc}{\contentsline {subsubsection}{\numberline {2.1.1}Wissen -- Begriffsbestimmung}{10}{subsubsection.2.1.1}}
\citation{KGoetz}
\citation{Reinmann}
\citation{Reinmann}
\citation{KGoetz}
\@writefile{lof}{\contentsline {figure}{\numberline {1}{\ignorespaces Wissenspyramide}}{11}{figure.caption.6}}
\providecommand*\caption@xref[2]{\@setref\relax\@undefined{#1}}
\newlabel{Wissenspyramide}{{1}{11}{Wissenspyramide}{figure.caption.6}{}}
\@writefile{toc}{\contentsline {subsubsection}{\numberline {2.1.2}Explizites und implizites Wissen}{11}{subsubsection.2.1.2}}
\citation{Survey_Neurology}
\citation{MethodenWBS}
\citation{DefEx}
\@writefile{toc}{\contentsline {subsection}{\numberline {2.2}Expertensysteme}{12}{subsection.2.2}}
\newlabel{sec:Expertensysteme}{{2.2}{12}{Expertensysteme}{subsection.2.2}{}}
\@writefile{toc}{\contentsline {subsubsection}{\numberline {2.2.1}Definition}{12}{subsubsection.2.2.1}}
\newlabel{ExDef}{{2.2.1}{12}{Definition}{subsubsection.2.2.1}{}}
\citation{SystemeFuerExperten}
\citation{MethodenWBS}
\@writefile{toc}{\contentsline {subsubsection}{\numberline {2.2.2}Expertenwissen und Experten}{13}{subsubsection.2.2.2}}
\newlabel{ExW}{{2.2.2}{13}{Expertenwissen und Experten}{subsubsection.2.2.2}{}}
\citation{MethodenWBS}
\citation{MethodenWBS}
\citation{MethodenWBS}
\citation{MethodenWBS}
\citation{MethodenWBS}
\citation{MethodenWBS}
\@writefile{toc}{\contentsline {subsubsection}{\numberline {2.2.3}Architektur von Expertensystemen}{14}{subsubsection.2.2.3}}
\newlabel{ExArch}{{2.2.3}{14}{Architektur von Expertensystemen}{subsubsection.2.2.3}{}}
\citation{MethodenWBS}
\citation{MethodenWBS}
\citation{EXMED}
\citation{MethodenWBS}
\citation{EXMED}
\citation{EXMED}
\citation{Laudon}
\citation{EXMED}
\citation{MethodenWBS}
\@writefile{lof}{\contentsline {figure}{\numberline {2}{\ignorespaces Architektur eines Expertensystems}}{15}{figure.caption.7}}
\newlabel{Arichtektur_Expertensystem}{{2}{15}{Architektur eines Expertensystems}{figure.caption.7}{}}
\citation{Gaener}
\citation{MethodenWBS}
\citation{EXMED}
\citation{MethodenWBS}
\citation{MethodenWBS}
\citation{EnzWINF}
\citation{MethodenWBS}
\citation{EXMED}
\citation{EXMED}
\citation{Gaener}
\@writefile{toc}{\contentsline {subsubsection}{\numberline {2.2.4}Wissensrepr\IeC {\"a}sentation}{17}{subsubsection.2.2.4}}
\newlabel{ExWR}{{2.2.4}{17}{Wissensrepräsentation}{subsubsection.2.2.4}{}}
\@writefile{toc}{\contentsline {paragraph}{\nonumberline Regelbasierte Systeme}{17}{section*.8}}
\@writefile{lof}{\contentsline {figure}{\numberline {3}{\ignorespaces Beispiel einer Regel}}{17}{figure.caption.9}}
\newlabel{Regel}{{3}{17}{Beispiel einer Regel}{figure.caption.9}{}}
\citation{CBR}
\citation{CBR}
\citation{CBR}
\citation{MedEx}
\citation{MedEx}
\@writefile{lof}{\contentsline {figure}{\numberline {4}{\ignorespaces Vorgehen beim fallbasiertes Schlie\IeC {\ss }en}}{18}{figure.caption.11}}
\newlabel{Fallbasiertes_Schliessen}{{4}{18}{Vorgehen beim fallbasiertes Schließen}{figure.caption.11}{}}
\@writefile{toc}{\contentsline {paragraph}{\nonumberline Fallbasiertes Schlie\IeC {\ss }en}{18}{figure.caption.11}}
\@writefile{toc}{\contentsline {paragraph}{\nonumberline K\IeC {\"u}nstliche neuronale Netze}{18}{section*.12}}
\citation{Laudon}
\citation{MedEx}
\citation{MedEx}
\citation{KE}
\citation{MedEx}
\citation{MedEx}
\@writefile{toc}{\contentsline {subsection}{\numberline {2.3}Knowledge Engineering}{19}{subsection.2.3}}
\newlabel{sec:Knowledge Engineering}{{2.3}{19}{Knowledge Engineering}{subsection.2.3}{}}
\@writefile{toc}{\contentsline {subsubsection}{\numberline {2.3.1}Allgemeine Beschreibung}{19}{subsubsection.2.3.1}}
\newlabel{All_KE}{{2.3.1}{19}{Allgemeine Beschreibung}{subsubsection.2.3.1}{}}
\@writefile{lof}{\contentsline {figure}{\numberline {5}{\ignorespaces Teilgebiete Knowledge Engineering}}{19}{figure.caption.13}}
\newlabel{Fallbasiertes_Schliessen}{{5}{19}{Teilgebiete Knowledge Engineering}{figure.caption.13}{}}
\citation{MedEx}
\citation{MedEx}
\citation{MedEx}
\citation{MedEx}
\citation{MedEx}
\citation{MedEx}
\citation{KE}
\citation{MedEx}
\citation{KE}
\citation{MedEx}
\citation{KE}
\citation{MedEx}
\citation{KE}
\@writefile{toc}{\contentsline {subsubsection}{\numberline {2.3.2}Wissensakquisition als Modellbildung}{20}{subsubsection.2.3.2}}
\newlabel{KE_Metaphern}{{2.3.2}{20}{Wissensakquisition als Modellbildung}{subsubsection.2.3.2}{}}
\citation{KE}
\citation{MedEx}
\citation{KE}
\citation{MedEx}
\citation{MedEx}
\citation{MedEx}
\citation{MedEx}
\@writefile{toc}{\contentsline {subsubsection}{\numberline {2.3.3}Wissenserhebung}{22}{subsubsection.2.3.3}}
\citation{ENZWIONTO}
\@writefile{toc}{\contentsline {subsection}{\numberline {2.4}Zusammenfassung}{23}{subsection.2.4}}
\newlabel{sec:ZSM_Grundlagen}{{2.4}{23}{Zusammenfassung}{subsection.2.4}{}}
\@setckpt{Grundlagen}{
\setcounter{page}{24}
\setcounter{equation}{0}
\setcounter{enumi}{0}
\setcounter{enumii}{0}
\setcounter{enumiii}{0}
\setcounter{enumiv}{0}
\setcounter{footnote}{6}
\setcounter{mpfootnote}{0}
\setcounter{part}{0}
\setcounter{section}{2}
\setcounter{subsection}{4}
\setcounter{subsubsection}{0}
\setcounter{paragraph}{0}
\setcounter{subparagraph}{0}
\setcounter{figure}{5}
\setcounter{table}{0}
\setcounter{ContinuedFloat}{0}
\setcounter{FancyVerbLine}{0}
\setcounter{Item}{0}
\setcounter{Hfootnote}{6}
\setcounter{bookmark@seq@number}{22}
\setcounter{section@level}{2}
}
