\relax 
\providecommand\hyper@newdestlabel[2]{}
\citation{MedEx}
\citation{MedEx}
\@writefile{toc}{\contentsline {section}{\numberline {5}Knowledge Engineering in der Neurologie}{45}{section.5}}
\newlabel{Kap5}{{5}{45}{Knowledge Engineering in der Neurologie}{section.5}{}}
\@writefile{toc}{\contentsline {subsection}{\numberline {5.1}Vor\IeC {\"u}berlegungen}{45}{subsection.5.1}}
\newlabel{Ueberlegungen}{{5.1}{45}{Vorüberlegungen}{subsection.5.1}{}}
\@writefile{toc}{\contentsline {paragraph}{\nonumberline Diagnostik in der Neurologie}{45}{section*.37}}
\@writefile{toc}{\contentsline {paragraph}{\nonumberline Einsatzzeitpunkt des Expertensystems}{45}{section*.38}}
\@writefile{toc}{\contentsline {paragraph}{\nonumberline Eingrenzung}{46}{section*.39}}
\@writefile{toc}{\contentsline {paragraph}{\nonumberline Ziel des Knowledge Engineering}{46}{section*.40}}
\@writefile{toc}{\contentsline {subsection}{\numberline {5.2}Wissensakquisition}{46}{subsection.5.2}}
\newlabel{WissAQ}{{5.2}{46}{Wissensakquisition}{subsection.5.2}{}}
\citation{DiffDiag}
\citation{DGN}
\citation{DGN}
\citation{DGN}
\citation{NeuVes}
\@writefile{toc}{\contentsline {subsubsection}{\numberline {5.2.1}Wissensquellen selektieren}{47}{subsubsection.5.2.1}}
\newlabel{WissenQuellen}{{5.2.1}{47}{Wissensquellen selektieren}{subsubsection.5.2.1}{}}
\citation{DGN}
\citation{DGNSchwindel}
\citation{DGNMWilson}
\citation{DGNSchwindel}
\citation{unterbergtest}
\citation{DiffDiag}
\@writefile{toc}{\contentsline {subsubsection}{\numberline {5.2.2}Wissenserhebung}{48}{subsubsection.5.2.2}}
\newlabel{WissensErh}{{5.2.2}{48}{Wissenserhebung}{subsubsection.5.2.2}{}}
\@writefile{toc}{\contentsline {paragraph}{\nonumberline Neuritis Vestibularis}{48}{section*.41}}
\citation{DGNSchwindel}
\citation{NetDoc}
\citation{KlinikUlm}
\citation{DGNSchwindel}
\citation{Duden}
\citation{DGNMWilson}
\newlabel{SympMeniere}{{5.2.2}{49}{Morbus Menière}{section*.42}{}}
\@writefile{toc}{\contentsline {paragraph}{\nonumberline Morbus Meni\IeC {\`e}re}{49}{section*.42}}
\@writefile{toc}{\contentsline {paragraph}{\nonumberline Morbus Wilson}{49}{section*.43}}
\citation{DGNMWilson}
\citation{DGNMWilson}
\@writefile{lof}{\contentsline {figure}{\numberline {9}{\ignorespaces Score-Card Morbus Wilson}}{50}{figure.caption.44}}
\newlabel{Morbus_Wilson_Score}{{9}{50}{Score-Card Morbus Wilson}{figure.caption.44}{}}
\@writefile{toc}{\contentsline {subsubsection}{\numberline {5.2.3}Wissensformalisierung}{51}{subsubsection.5.2.3}}
\newlabel{Wissensform}{{5.2.3}{51}{Wissensformalisierung}{subsubsection.5.2.3}{}}
\@writefile{lof}{\contentsline {figure}{\numberline {10}{\ignorespaces Funktionsblock in FCL}}{51}{figure.caption.45}}
\newlabel{Function_Block_FCL}{{10}{51}{Funktionsblock in FCL}{figure.caption.45}{}}
\citation{IEC}
\citation{DiffDiag}
\@writefile{lof}{\contentsline {figure}{\numberline {11}{\ignorespaces Definition der Input-Variablen in FCL}}{52}{figure.caption.46}}
\newlabel{Input_Variables_Block_FCL}{{11}{52}{Definition der Input-Variablen in FCL}{figure.caption.46}{}}
\@writefile{lof}{\contentsline {figure}{\numberline {12}{\ignorespaces Definition der Output-Variable in FCL}}{52}{figure.caption.47}}
\newlabel{Output_Variables_Block_FCL}{{12}{52}{Definition der Output-Variable in FCL}{figure.caption.47}{}}
\@writefile{lof}{\contentsline {figure}{\numberline {13}{\ignorespaces Fuzzifikation der Variable rotary\_vertigo in FCL}}{53}{figure.caption.48}}
\newlabel{Fuzzyfication_FCL}{{13}{53}{Fuzzifikation der Variable rotary\_vertigo in FCL}{figure.caption.48}{}}
\@writefile{lof}{\contentsline {figure}{\numberline {14}{\ignorespaces Zugeh\IeC {\"o}rigkeitsfunktion der Variable "`rotary\_vertigo"'}}{53}{figure.caption.49}}
\newlabel{Membershipfunction_rotary_vertigo}{{14}{53}{Zugehörigkeitsfunktion der Variable "`rotary\_vertigo"'}{figure.caption.49}{}}
\citation{IEC}
\@writefile{lof}{\contentsline {figure}{\numberline {15}{\ignorespaces Defuzzifikation der Output-Variable "`morbus\_meniere"' in FCL}}{54}{figure.caption.50}}
\newlabel{Defuzzyfication_FCL}{{15}{54}{Defuzzifikation der Output-Variable "`morbus\_meniere"' in FCL}{figure.caption.50}{}}
\@writefile{lof}{\contentsline {figure}{\numberline {16}{\ignorespaces Zugeh\IeC {\"o}rigkeitsfunktion der Variable "`morbus\_meniere"'}}{55}{figure.caption.51}}
\newlabel{Membershipfunction_morbus_meniere}{{16}{55}{Zugehörigkeitsfunktion der Variable "`morbus\_meniere"'}{figure.caption.51}{}}
\@writefile{lof}{\contentsline {figure}{\numberline {17}{\ignorespaces Regelblock von "`morbus\_meniere"' in FCL}}{56}{figure.caption.52}}
\newlabel{Ruleblock_FCL}{{17}{56}{Regelblock von "`morbus\_meniere"' in FCL}{figure.caption.52}{}}
\@setckpt{Knowledge_Engineering_in_der_Neurologie}{
\setcounter{page}{57}
\setcounter{equation}{0}
\setcounter{enumi}{0}
\setcounter{enumii}{0}
\setcounter{enumiii}{0}
\setcounter{enumiv}{0}
\setcounter{footnote}{25}
\setcounter{mpfootnote}{0}
\setcounter{part}{0}
\setcounter{section}{5}
\setcounter{subsection}{2}
\setcounter{subsubsection}{3}
\setcounter{paragraph}{0}
\setcounter{subparagraph}{0}
\setcounter{figure}{17}
\setcounter{table}{1}
\setcounter{ContinuedFloat}{0}
\setcounter{FancyVerbLine}{0}
\setcounter{Item}{0}
\setcounter{Hfootnote}{25}
\setcounter{bookmark@seq@number}{43}
\setcounter{section@level}{3}
}
