\relax 
\providecommand\hyper@newdestlabel[2]{}
\citation{Survey_Neurology}
\citation{Survey_Neurology}
\citation{Survey_Neurology}
\citation{Survey_Neurology}
\citation{Survey_Neurology}
\citation{Survey_Neurology}
\citation{Survey_Neurology}
\@writefile{toc}{\contentsline {section}{\numberline {3}Verwandte Arbeiten}{24}{section.3}}
\newlabel{Kap3}{{3}{24}{Verwandte Arbeiten}{section.3}{}}
\@writefile{toc}{\contentsline {subsection}{\numberline {3.1}Literaturauswahl}{24}{subsection.3.1}}
\citation{Survey_Neurology}
\citation{Survey_Neurology}
\citation{Survey_Neurology}
\citation{Survey_Neurology}
\@writefile{lof}{\contentsline {figure}{\numberline {6}{\ignorespaces Literaturauswahlprozess PRISMA statement}}{25}{figure.caption.14}}
\newlabel{PRISMA_statement}{{6}{25}{Literaturauswahlprozess PRISMA statement}{figure.caption.14}{}}
\@writefile{toc}{\contentsline {subsection}{\numberline {3.2}Ergebnisse}{25}{subsection.3.2}}
\citation{Survey_Neurology}
\@writefile{lot}{\contentsline {table}{\numberline {1}{\ignorespaces Ergebnisse der Literaturanalyse}}{26}{table.caption.15}}
\newlabel{table_LitSuche}{{1}{26}{Ergebnisse der Literaturanalyse}{table.caption.15}{}}
\@setckpt{Verwandte_Arbeiten}{
\setcounter{page}{27}
\setcounter{equation}{0}
\setcounter{enumi}{0}
\setcounter{enumii}{0}
\setcounter{enumiii}{0}
\setcounter{enumiv}{0}
\setcounter{footnote}{8}
\setcounter{mpfootnote}{0}
\setcounter{part}{0}
\setcounter{section}{3}
\setcounter{subsection}{2}
\setcounter{subsubsection}{0}
\setcounter{paragraph}{0}
\setcounter{subparagraph}{0}
\setcounter{figure}{6}
\setcounter{table}{1}
\setcounter{ContinuedFloat}{0}
\setcounter{FancyVerbLine}{0}
\setcounter{Item}{0}
\setcounter{Hfootnote}{8}
\setcounter{bookmark@seq@number}{25}
\setcounter{section@level}{2}
}
