\select@language {ngerman}
\contentsline {section}{\numberline {1}Einleitung}{3}{section.1}
\contentsline {section}{\numberline {2}Gliederung}{3}{section.2}
\contentsline {section}{\numberline {3}Zeitplan}{4}{section.3}
