\contentsline {section}{Glossar}{4}{section*.2}
\contentsline {section}{Symbolverzeichnis}{4}{section*.3}
\contentsline {section}{Abbildungsverzeichnis}{5}{section*.4}
\contentsline {section}{Tabellenverzeichnis}{5}{section*.5}
\contentsline {section}{\numberline {1}Einleitung}{6}{section.1}
\contentsline {section}{\numberline {2}Erster Abschnitt des Hauptteils}{7}{section.2}
\contentsline {subsection}{\numberline {2.1}Allgemeine Hinweise zur Formatierung}{7}{subsection.2.1}
\contentsline {subsection}{\numberline {2.2}\~A\GenericError {(inputenc) }{Package inputenc Error: Keyboard character used is undefined\MessageBreak in inputencoding `latin1'}{See the inputenc package documentation for explanation.}{You need to provide a definition with \def \par }berschriften}{7}{subsection.2.2}
\contentsline {subsection}{\numberline {2.3}Abbildungen}{8}{subsection.2.3}
\contentsline {subsection}{\numberline {2.4}Allgemeine Hinweise}{8}{subsection.2.4}
\contentsline {subsubsection}{\numberline {2.4.1}Querverweise}{8}{subsubsection.2.4.1}
\contentsline {subsubsection}{\numberline {2.4.2}Ausdrucke}{8}{subsubsection.2.4.2}
\contentsline {subsubsection}{\numberline {2.4.3}Fu\~A\GenericError {(inputenc) }{Package inputenc Error: Keyboard character used is undefined\MessageBreak in inputencoding `latin1'}{See the inputenc package documentation for explanation.}{You need to provide a definition with \def 1 ${}\def \let } } 
\contentsline {section}{\numberline {3}Weitere Abschnitte des Hauptteils}{9}{section.3}
\contentsline {section}{\numberline {4}Schlussteil}{9}{section.4}
\contentsline {section}{\numberline {A}Anhang}{9}{appendix.A}
\contentsline {section}{Literaturverzeichnis}{11}{appendix.A}
