\relax 
\providecommand\hyper@newdestlabel[2]{}
\providecommand\HyperFirstAtBeginDocument{\AtBeginDocument}
\HyperFirstAtBeginDocument{\ifx\hyper@anchor\@undefined
\global\let\oldcontentsline\contentsline
\gdef\contentsline#1#2#3#4{\oldcontentsline{#1}{#2}{#3}}
\global\let\oldnewlabel\newlabel
\gdef\newlabel#1#2{\newlabelxx{#1}#2}
\gdef\newlabelxx#1#2#3#4#5#6{\oldnewlabel{#1}{{#2}{#3}}}
\AtEndDocument{\ifx\hyper@anchor\@undefined
\let\contentsline\oldcontentsline
\let\newlabel\oldnewlabel
\fi}
\fi}
\global\let\hyper@last\relax 
\gdef\HyperFirstAtBeginDocument#1{#1}
\providecommand\HyField@AuxAddToFields[1]{}
\providecommand\HyField@AuxAddToCoFields[2]{}
\@writefile{toc}{\contentsline {section}{Glossar}{4}{section*.2}}
\@writefile{toc}{\contentsline {section}{Symbolverzeichnis}{4}{section*.3}}
\@writefile{toc}{\contentsline {section}{Abbildungsverzeichnis}{5}{section*.4}}
\@writefile{toc}{\contentsline {section}{Tabellenverzeichnis}{5}{section*.5}}
\@writefile{toc}{\contentsline {section}{\numberline {1}Einleitung}{6}{section.1}}
\@writefile{toc}{\contentsline {section}{\numberline {2}Erster Abschnitt des Hauptteils}{7}{section.2}}
\@writefile{toc}{\contentsline {subsection}{\numberline {2.1}Allgemeine Hinweise zur Formatierung}{7}{subsection.2.1}}
\@writefile{toc}{\contentsline {subsection}{\numberline {2.2}\~A\GenericError  {(inputenc)                }{Package inputenc Error: Keyboard character used is undefined\MessageBreak in inputencoding `latin1'}{See the inputenc package documentation for explanation.}{You need to provide a definition with \def \par }berschriften}{7}{subsection.2.2}}
\@writefile{toc}{\contentsline {subsection}{\numberline {2.3}Abbildungen}{8}{subsection.2.3}}
\@writefile{toc}{\contentsline {subsection}{\numberline {2.4}Allgemeine Hinweise}{8}{subsection.2.4}}
\@writefile{toc}{\contentsline {subsubsection}{\numberline {2.4.1}Querverweise}{8}{subsubsection.2.4.1}}
\@writefile{toc}{\contentsline {subsubsection}{\numberline {2.4.2}Ausdrucke}{8}{subsubsection.2.4.2}}
\@writefile{toc}{\contentsline {subsubsection}{\numberline {2.4.3}Fu\~A\GenericError  {(inputenc)                }{Package inputenc Error: Keyboard character used is undefined\MessageBreak in inputencoding `latin1'}{See the inputenc package documentation for explanation.}{You need to provide a definition with \def 1 ${}\def \let  } } } 
\@writefile{toc}{\contentsline {section}{\numberline {3}Weitere Abschnitte des Hauptteils}{9}{section.3}}
\@writefile{toc}{\contentsline {section}{\numberline {4}Schlussteil}{9}{section.4}}
\@writefile{toc}{\contentsline {section}{\numberline {A}Anhang}{9}{appendix.A}}
\bibstyle{alpha}
\bibdata{literatur}
\@writefile{toc}{\contentsline {section}{Literaturverzeichnis}{11}{appendix.A}}
\global\@altsecnumformattrue
